LAB 3
…
There are 10,752 rows in this data set. This is because there are 168 people and 64 words. Therefore for each word, 168 people (or rows) will be answering it.

Cleaning the Data

4. Missing values for some of the variables were replaced with other values. How were missing values replaced? What do you believe are some benefits and drawbacks of doing this?

Show code

hipHopData |>
  filter(city == 0, county == 0)

# A tibble: 384 × 38
   word    subj  sex     age ethnic  city county  intl vocal class…¹  folk  rock
   <chr>   <chr> <chr> <dbl> <chr>  <dbl>  <dbl> <dbl> <dbl>   <dbl> <dbl> <dbl>
 1 [to be… p145  Male     18 white      0      0     0     0       0     0    15
 2 [to be… p147  Fema…    20 asian      0      0     0     0       4     0     0
 3 [to be… p11   Fema…    18 asian      0      0    15     0       0     0     0
 4 [to be… p43   Fema…    18 asian      0      0     6     0       0     0     0
 5 [to be… p135  Fema…    18 asian      0      0     0     0       3     0     0
 6 [to be… p81   Fema…    18 asian      0      0     0     0       2     0     0
 7 5-0     p145  Male     18 white      0      0     0     0       0     0    15
 8 5-0     p147  Fema…    20 asian      0      0     0     0       4     0     0
 9 5-0     p11   Fema…    18 asian      0      0    15     0       0     0     0
10 5-0     p43   Fema…    18 asian      0      0     6     0       0     0     0
# … with 374 more rows, 26 more variables: country <dbl>, pop <dbl>,
#   alternative <dbl>, hiphop <dbl>, unclassifiable <dbl>, countyBlack <dbl>,
#   jayz <dbl>, barkley <dbl>, boondocks <dbl>, monique <dbl>, bieber <dbl>,
#   asianMove <dbl>, blackMove <dbl>, hispanicMove <dbl>, nativeMove <dbl>,
#   SAAMEMove <dbl>, whiteMove <dbl>, blackWeekly <dbl>, jayz1 <dbl>,
#   boondocks1 <dbl>, familiarity <dbl>, trial <dbl>, fam1 <dbl>,
#   popularityScore <dbl>, numPreferredArtists <dbl>, …
…
Max: 5-0

Show code

hiphop_clean |>
  filter(sex == 'Male' &
       ethnic1 == 'white' & 
       age > 30) |>
  group_by(word) |>
  summarize(fammean = mean(familiarity)) |>
  slice_min(fammean)

# A tibble: 25 × 2
   word              fammean
   <chr>               <dbl>
 1 ay yo trip              1
 2 beezy                   1
 3 break someone out       1
 4 catch the vapors        1
 5 crossroads              1
 6 crump                   1
 7 dap                     1
 8 dollar cab              1
 9 domino                  1
10 duckets                 1
# … with 15 more rows
…
